<?xml version="1.0" encoding="UTF-8"?>
<CustomTab xmlns="http://soap.sforce.com/2006/04/metadata">
    <label>All files</label>
    <lwcComponent>fileListAllRecords</lwcComponent>
    <motif>Custom26: Flag</motif>
</CustomTab>
